{
	"title":"Ingeniería de edificación",
	"description":"",
	"subjects": [
		"Álgebra",
		"Cálculo",
		"Mecánica",
		"Fundamentos de Instalaciones",
		"Sistemas de Representación del Espacio",
		"Materiales I",
		"Economia y Empresa",
		"Estructuras I",
		"Estructuras II",
		"Estructuras III"
	]
}