<?xml version="1.0" encoding="UTF-8" standalone="no"?>
<!-- Created with Inkscape (http://www.inkscape.org/) -->

<svg
   xmlns:osb="http://www.openswatchbook.org/uri/2009/osb"
   xmlns:dc="http://purl.org/dc/elements/1.1/"
   xmlns:cc="http://creativecommons.org/ns#"
   xmlns:rdf="http://www.w3.org/1999/02/22-rdf-syntax-ns#"
   xmlns:svg="http://www.w3.org/2000/svg"
   xmlns="http://www.w3.org/2000/svg"
   xmlns:xlink="http://www.w3.org/1999/xlink"
   xmlns:sodipodi="http://sodipodi.sourceforge.net/DTD/sodipodi-0.dtd"
   xmlns:inkscape="http://www.inkscape.org/namespaces/inkscape"
   width="48px"
   height="48px"
   id="svg8435"
   version="1.1"
   inkscape:version="0.48.3.1 r9886"
   sodipodi:docname="icon-play.svg">
  <defs
     id="defs8437">
    <linearGradient
       id="linearGradient10596"
       osb:paint="solid">
      <stop
         style="stop-color:#fa9b0d;stop-opacity:1;"
         offset="0"
         id="stop10598" />
    </linearGradient>
    <linearGradient
       id="linearGradient10511"
       osb:paint="solid">
      <stop
         style="stop-color:#000000;stop-opacity:1;"
         offset="0"
         id="stop10513" />
    </linearGradient>
    <clipPath
       clipPathUnits="userSpaceOnUse"
       id="clipPath1778">
      <path
         inkscape:connector-curvature="0"
         d="m 219.717,257.665 c -0.508,-0.508 -0.453,-1.391 0.12,-1.965 l 0,0 3.019,-3.02 -3.017,-3.017 c -0.575,-0.574 -0.63,-1.457 -0.122,-1.965 l 0,0 c 0.508,-0.508 1.393,-0.453 1.967,0.12 l 0,0 3.018,3.019 3.017,-3.019 c 0.573,-0.573 1.457,-0.628 1.965,-0.12 l 0,0 c 0.509,0.508 0.454,1.393 -0.12,1.965 l 0,0 -3.017,3.017 3.017,3.02 c 0.574,0.572 0.629,1.457 0.12,1.965 l 0,0 c -0.508,0.508 -1.392,0.453 -1.965,-0.119 l 0,0 -3.017,-3.02 -3.02,3.02 c -0.309,0.31 -0.708,0.468 -1.091,0.468 l 0,0 c -0.326,0 -0.64,-0.115 -0.874,-0.349"
         id="path1780" />
    </clipPath>
    <linearGradient
       x1="0"
       y1="0"
       x2="1"
       y2="0"
       gradientUnits="userSpaceOnUse"
       gradientTransform="matrix(0,10.663086,10.663086,0,224.70117,247.35059)"
       spreadMethod="pad"
       id="linearGradient1786">
      <stop
         style="stop-opacity:1;stop-color:#333333"
         offset="0"
         id="stop1788" />
      <stop
         style="stop-opacity:1;stop-color:#666666"
         offset="0.836365"
         id="stop1790" />
      <stop
         style="stop-opacity:1;stop-color:#666666"
         offset="1"
         id="stop1792" />
    </linearGradient>
    <clipPath
       clipPathUnits="userSpaceOnUse"
       id="clipPath1756">
      <path
         inkscape:connector-curvature="0"
         d="m 219.443,262.54 -5.014,-4.512 c -0.274,-0.247 -0.531,-0.566 -0.764,-0.921 l 0,0 -3.924,0 c -0.81,0 -1.474,-0.665 -1.474,-1.477 l 0,0 0,-6.006 c 0,-0.813 0.664,-1.474 1.474,-1.474 l 0,0 3.924,0 c 0.233,-0.358 0.49,-0.676 0.764,-0.923 l 0,0 5.014,-4.513 c 1.006,-0.905 1.827,-0.539 1.827,0.813 l 0,0 0,2.507 c -0.573,-0.396 -1.369,-0.341 -1.877,0.168 l 0,0 -1.172,1.172 c -0.574,0.572 -0.574,1.51 0,2.084 l 0,0 3.049,3.049 0,0.442 -2.968,2.968 c -0.574,0.572 -0.574,1.51 0,2.084 l 0,0 1.08,1.08 c 0.513,0.511 1.314,0.563 1.888,0.16 l 0,0 0,2.486 c 0,0.85 -0.324,1.31 -0.815,1.31 l 0,0 c -0.29,0 -0.638,-0.161 -1.012,-0.497"
         id="path1758" />
    </clipPath>
    <linearGradient
       x1="0"
       y1="0"
       x2="1"
       y2="0"
       gradientUnits="userSpaceOnUse"
       gradientTransform="matrix(0,20.820312,20.820312,0,214.76855,242.2168)"
       spreadMethod="pad"
       id="linearGradient1764">
      <stop
         style="stop-opacity:1;stop-color:#333333"
         offset="0"
         id="stop1766" />
      <stop
         style="stop-opacity:1;stop-color:#666666"
         offset="0.836365"
         id="stop1768" />
      <stop
         style="stop-opacity:1;stop-color:#666666"
         offset="1"
         id="stop1770" />
    </linearGradient>
    <clipPath
       clipPathUnits="userSpaceOnUse"
       id="clipPath3098">
      <path
         inkscape:connector-curvature="0"
         d="m 265.731,112.213 0,-15.655 c 0,-1.559 1.088,-2.17 2.419,-1.357 l 0,0 12.621,7.707 c 1.33,0.813 1.33,2.143 0,2.955 l 0,0 -12.621,7.707 c -0.4,0.244 -0.778,0.36 -1.111,0.36 l 0,0 c -0.775,0 -1.308,-0.626 -1.308,-1.717"
         id="path3100" />
    </clipPath>
    <linearGradient
       x1="0"
       y1="0"
       x2="1"
       y2="0"
       gradientUnits="userSpaceOnUse"
       gradientTransform="matrix(0,19.089844,19.089844,0,273.75,94.84082)"
       spreadMethod="pad"
       id="linearGradient3106">
      <stop
         style="stop-opacity:1;stop-color:#333333"
         offset="0"
         id="stop3108" />
      <stop
         style="stop-opacity:1;stop-color:#666666"
         offset="0.836365"
         id="stop3110" />
      <stop
         style="stop-opacity:1;stop-color:#666666"
         offset="1"
         id="stop3112" />
    </linearGradient>
    <linearGradient
       inkscape:collect="always"
       xlink:href="#linearGradient10596"
       id="linearGradient10600"
       x1="265.731"
       y1="104.38546"
       x2="281.7685"
       y2="104.38546"
       gradientUnits="userSpaceOnUse" />
    <linearGradient
       inkscape:collect="always"
       xlink:href="#linearGradient10596"
       id="linearGradient10621"
       gradientUnits="userSpaceOnUse"
       x1="265.731"
       y1="104.38546"
       x2="281.7685"
       y2="104.38546" />
    <linearGradient
       inkscape:collect="always"
       xlink:href="#linearGradient10596"
       id="linearGradient10623"
       gradientUnits="userSpaceOnUse"
       x1="265.731"
       y1="104.38546"
       x2="281.7685"
       y2="104.38546" />
    <linearGradient
       inkscape:collect="always"
       xlink:href="#linearGradient10596"
       id="linearGradient10625"
       gradientUnits="userSpaceOnUse"
       x1="265.731"
       y1="104.38546"
       x2="281.7685"
       y2="104.38546" />
    <linearGradient
       inkscape:collect="always"
       xlink:href="#linearGradient10596"
       id="linearGradient10627"
       gradientUnits="userSpaceOnUse"
       x1="265.731"
       y1="104.38546"
       x2="281.7685"
       y2="104.38546" />
    <clipPath
       clipPathUnits="userSpaceOnUse"
       id="clipPath3318">
      <path
         inkscape:connector-curvature="0"
         d="m 328.361,113.716 c -1.099,0 -2,-0.901 -2,-2 l 0,0 0,-14.164 c 0,-1.1 0.901,-2 2,-2 l 0,0 1.64,0 c 1.102,0 2.001,0.9 2.001,2 l 0,0 0,14.164 c 0,1.099 -0.899,2 -2.001,2 l 0,0 -1.64,0 z"
         id="path3320" />
    </clipPath>
    <linearGradient
       x1="0"
       y1="0"
       x2="1"
       y2="0"
       gradientUnits="userSpaceOnUse"
       gradientTransform="matrix(0,18.164062,18.164062,0,329.18115,95.551758)"
       spreadMethod="pad"
       id="linearGradient3326">
      <stop
         style="stop-opacity:1;stop-color:#333333"
         offset="0"
         id="stop3328" />
      <stop
         style="stop-opacity:1;stop-color:#666666"
         offset="0.836365"
         id="stop3330" />
      <stop
         style="stop-opacity:1;stop-color:#666666"
         offset="1"
         id="stop3332" />
    </linearGradient>
    <clipPath
       clipPathUnits="userSpaceOnUse"
       id="clipPath3296">
      <path
         inkscape:connector-curvature="0"
         d="m 318.486,113.716 c -1.1,0 -2,-0.901 -2,-2 l 0,0 0,-14.164 c 0,-1.1 0.9,-2 2,-2 l 0,0 1.64,0 c 1.102,0 2,0.9 2,2 l 0,0 0,14.164 c 0,1.099 -0.898,2 -2,2 l 0,0 -1.64,0 z"
         id="path3298" />
    </clipPath>
    <linearGradient
       x1="0"
       y1="0"
       x2="1"
       y2="0"
       gradientUnits="userSpaceOnUse"
       gradientTransform="matrix(0,18.164062,18.164062,0,319.30615,95.551758)"
       spreadMethod="pad"
       id="linearGradient3304">
      <stop
         style="stop-opacity:1;stop-color:#333333"
         offset="0"
         id="stop3306" />
      <stop
         style="stop-opacity:1;stop-color:#666666"
         offset="0.836365"
         id="stop3308" />
      <stop
         style="stop-opacity:1;stop-color:#666666"
         offset="1"
         id="stop3310" />
    </linearGradient>
  </defs>
  <sodipodi:namedview
     id="base"
     pagecolor="#ffffff"
     bordercolor="#666666"
     borderopacity="1.0"
     inkscape:pageopacity="0.0"
     inkscape:pageshadow="2"
     inkscape:zoom="7"
     inkscape:cx="6.7174932"
     inkscape:cy="24"
     inkscape:current-layer="g8524"
     showgrid="true"
     inkscape:grid-bbox="true"
     inkscape:document-units="px"
     inkscape:window-width="1282"
     inkscape:window-height="919"
     inkscape:window-x="65"
     inkscape:window-y="52"
     inkscape:window-maximized="0" />
  <metadata
     id="metadata8440">
    <rdf:RDF>
      <cc:Work
         rdf:about="">
        <dc:format>image/svg+xml</dc:format>
        <dc:type
           rdf:resource="http://purl.org/dc/dcmitype/StillImage" />
        <dc:title></dc:title>
      </cc:Work>
    </rdf:RDF>
  </metadata>
  <g
     id="layer1"
     inkscape:label="Layer 1"
     inkscape:groupmode="layer">
    <g
       id="g8524"
       transform="matrix(1.653973,0,0,1.653973,-15.69535,-15.695348)">
      <g
         id="g1752"
         transform="matrix(1.25,0,0,-1.25,-249.93736,339.78375)" />
      <g
         transform="matrix(1.3638225,0,0,-1.3638225,-418.21125,166.7022)"
         id="g3292"
         style="fill:#fa9b0d;fill-opacity:1">
        <g
           id="g3294"
           clip-path="url(#clipPath3296)"
           style="fill:#fa9b0d;fill-opacity:1">
          <g
             id="g3300"
             style="fill:#fa9b0d;fill-opacity:1">
            <g
               id="g3302"
               style="fill:#fa9b0d;fill-opacity:1">
              <path
                 inkscape:connector-curvature="0"
                 d="m 318.486,113.716 c -1.1,0 -2,-0.901 -2,-2 l 0,0 0,-14.164 c 0,-1.1 0.9,-2 2,-2 l 0,0 1.64,0 c 1.102,0 2,0.9 2,2 l 0,0 0,14.164 c 0,1.099 -0.898,2 -2,2 l 0,0 -1.64,0 z"
                 style="fill:#fa9b0d;fill-opacity:1;stroke:none"
                 id="path3312" />
            </g>
          </g>
        </g>
      </g>
      <g
         transform="matrix(1.3638225,0,0,-1.3638225,-418.21125,166.7022)"
         id="g3314"
         style="fill:#fa9b0d;fill-opacity:1">
        <g
           id="g3316"
           clip-path="url(#clipPath3318)"
           style="fill:#fa9b0d;fill-opacity:1">
          <g
             id="g3322"
             style="fill:#fa9b0d;fill-opacity:1">
            <g
               id="g3324"
               style="fill:#fa9b0d;fill-opacity:1">
              <path
                 inkscape:connector-curvature="0"
                 d="m 328.361,113.716 c -1.099,0 -2,-0.901 -2,-2 l 0,0 0,-14.164 c 0,-1.1 0.901,-2 2,-2 l 0,0 1.64,0 c 1.102,0 2.001,0.9 2.001,2 l 0,0 0,14.164 c 0,1.099 -0.899,2 -2.001,2 l 0,0 -1.64,0 z"
                 style="fill:#fa9b0d;fill-opacity:1;stroke:none"
                 id="path3334" />
            </g>
          </g>
        </g>
      </g>
    </g>
  </g>
</svg>
